{
  "createdBy": "webackoffice",
  "createdDate": "2021-03-05T03:24:41.452Z",
  "lastModifiedBy": "live_webview",
  "lastModifiedDate": "2021-03-05T07:29:15.363Z",
  "id": "6041a479e21a7c452411dd66",
  "user": "tung live",
  "title": "eiei test ไม่สิ้นสุด แฮะๆ",
  "description": null,
  "brandId": null,
  "brandName": null,
  "shopId": "Tung001",
  "shopName": "Tung Store",
  "numOfView": 6,
  "status": "LIVE_NOW",
  "categoryIds": [
    "wemallCategoryId001",
    "wemallCategoryId002"
  ],
  "categoryNames": [
    "phone",
    "electronic"
  ],
  "tags": [
    "officialstore"
  ],
  "streamUrl": "rtmp://live-ingest.upstra-china.cc/5f034ec1cee8f100137371d8/202fa7310064a0673812e38e63c7c0be?auth_key=1614918281-0-0-219afeea5d90ee49c6d8a50a11cf9c06",
  "streamKey": "STREAM_KEY",
  "streamId": "202fa7310064a0673812e38e63c7c0be",
  "chatId": "0c63b62a5e6048b1",
  "streamType": "STREAM_KEY",
  "thumbnailUrl": null,
  "logoUrl": "https://www.designmantic.com/logo-images/168098.png?company=Company+Name&slogan=&verify=1",
  "products": [
    {
      "id": "5f89596d188a5e3ce3b1de8b",
      "name": "เอ001,TEST",
      "imageUrl": "",
      "basePrice": 10000,
      "sellingPrice": null,
      "link": null,
      "display": false
    },
    {
      "id": "5ff589970779d70e28565319",
      "name": "HYBRID TRAINER I88 RUNNING SHOES,green",
      "imageUrl": "https://www.porsche-design.com/globalassets/productimages/$p-p5710-4/4046901870782-01_ga_pd_sall_ain_v1.jpg",
      "basePrice": null,
      "sellingPrice": null,
      "link": null,
      "display": false
    },
    {
      "id": "5ff589970779d70e2856531a",
      "name": "HYBRID TRAINER I88 RUNNING SHOES,red",
      "imageUrl": "https://www.porsche-design.com/globalassets/productimages/$p-p5710-4/4046901870782-01_ga_pd_sall_ain_v1.jpg",
      "basePrice": null,
      "sellingPrice": null,
      "link": null,
      "display": false
    }
  ],
  "promotedProducts": [],
  "hlsUrl": "https://upstra-app-live.oss-ap-southeast-1.aliyuncs.com/record/5f034ec1cee8f100137371d8/c545f8dd8c497c41075df34a0f06a8de/2021-03-04-17-56-26_2021-03-04-17-57-17.m3u8",
  "projectId": "5f72bd7d6a483e000137497a",
  "ref1": null,
  "ref2": null,
  "ref3": null,
  "ref4": null,
  "ref5": null,
  "ref6": null,
  "ref7": null,
  "ref8": null,
  "ref9": null,
  "ref10": null,
  "shopLink": "www.google.com",
  "isRerun": false
}
